{
    "_links": {
        "self": {
            "href": "http:\/\/default\/profile-list\/tom-bennett?_format=hal_json"
        },
        "type": {
            "href": "http:\/\/drupal.org\/rest\/type\/node\/profile"
        },
        "http:\/\/drupal.org\/rest\/relation\/node\/profile\/uid": [
            {
                "href": "http:\/\/default\/user\/1?_format=hal_json"
            }
        ],
        "http:\/\/drupal.org\/rest\/relation\/node\/profile\/revision_uid": [
            {
                "href": "http:\/\/default\/user\/1?_format=hal_json"
            }
        ],
        "http:\/\/drupal.org\/rest\/relation\/node\/profile\/field_profile_department": [
            {
                "href": "http:\/\/default\/node\/111?_format=hal_json"
            },
            {
                "href": "http:\/\/default\/node\/110?_format=hal_json"
            },
            {
                "href": "http:\/\/default\/node\/109?_format=hal_json"
            }
        ],
        "http:\/\/drupal.org\/rest\/relation\/node\/profile\/field_profile_image": [
            {
                "href": "http:\/\/default\/sites\/default\/files\/2017-05\/Tom-Bennett-Photo_0_7_1.jpg"
            }
        ],
        "http:\/\/drupal.org\/rest\/relation\/node\/profile\/field_profile_research_interests": [
            {
                "href": "http:\/\/default\/taxonomy\/term\/19?_format=hal_json"
            },
            {
                "href": "http:\/\/default\/taxonomy\/term\/22?_format=hal_json"
            }
        ]
    },
    "nid": [
        {
            "value": 28
        }
    ],
    "uuid": [
        {
            "value": "9c0d99ff-2640-4930-a627-bf43c6c53363"
        }
    ],
    "vid": [
        {
            "value": 28
        }
    ],
    "type": [
        {
            "target_id": "profile"
        }
    ],
    "status": [
        {
            "value": true
        }
    ],
    "title": [
        {
            "value": "Tom Bennett"
        }
    ],
    "_embedded": {
        "http:\/\/drupal.org\/rest\/relation\/node\/profile\/uid": [
            {
                "_links": {
                    "self": {
                        "href": "http:\/\/default\/user\/1?_format=hal_json"
                    },
                    "type": {
                        "href": "http:\/\/drupal.org\/rest\/type\/user\/user"
                    }
                },
                "uuid": [
                    {
                        "value": "5aef157e-2748-4e6d-8ee5-a7320424a21e"
                    }
                ]
            }
        ],
        "http:\/\/drupal.org\/rest\/relation\/node\/profile\/revision_uid": [
            {
                "_links": {
                    "self": {
                        "href": "http:\/\/default\/user\/1?_format=hal_json"
                    },
                    "type": {
                        "href": "http:\/\/drupal.org\/rest\/type\/user\/user"
                    }
                },
                "uuid": [
                    {
                        "value": "5aef157e-2748-4e6d-8ee5-a7320424a21e"
                    }
                ]
            }
        ],
        "http:\/\/drupal.org\/rest\/relation\/node\/profile\/field_profile_department": [
            {
                "_links": {
                    "self": {
                        "href": "http:\/\/default\/node\/111?_format=hal_json"
                    },
                    "type": {
                        "href": "http:\/\/drupal.org\/rest\/type\/node\/department"
                    }
                },
                "uuid": [
                    {
                        "value": "63d195ab-6165-452c-87cf-e125f13bea18"
                    }
                ]
            },
            {
                "_links": {
                    "self": {
                        "href": "http:\/\/default\/node\/110?_format=hal_json"
                    },
                    "type": {
                        "href": "http:\/\/drupal.org\/rest\/type\/node\/department"
                    }
                },
                "uuid": [
                    {
                        "value": "6446420c-f6d1-44e3-a73e-e76131b3c93a"
                    }
                ]
            },
            {
                "_links": {
                    "self": {
                        "href": "http:\/\/default\/node\/109?_format=hal_json"
                    },
                    "type": {
                        "href": "http:\/\/drupal.org\/rest\/type\/node\/department"
                    }
                },
                "uuid": [
                    {
                        "value": "1fe1c90f-807b-49af-8717-6c3a899c313a"
                    }
                ]
            }
        ],
        "http:\/\/drupal.org\/rest\/relation\/node\/profile\/field_profile_image": [
            {
                "_links": {
                    "self": {
                        "href": "http:\/\/default\/sites\/default\/files\/2017-05\/Tom-Bennett-Photo_0_7_1.jpg"
                    },
                    "type": {
                        "href": "http:\/\/drupal.org\/rest\/type\/file\/file"
                    }
                },
                "uuid": [
                    {
                        "value": "c21a7f0a-252e-4262-9045-adfe8a23ee3e"
                    }
                ],
                "alt": "Tom Bennett",
                "title": "",
                "width": "360",
                "height": "415"
            }
        ],
        "http:\/\/drupal.org\/rest\/relation\/node\/profile\/field_profile_research_interests": [
            {
                "_links": {
                    "self": {
                        "href": "http:\/\/default\/taxonomy\/term\/19?_format=hal_json"
                    },
                    "type": {
                        "href": "http:\/\/drupal.org\/rest\/type\/taxonomy_term\/interests"
                    }
                },
                "uuid": [
                    {
                        "value": "06408782-fbf4-4e2a-beb8-541350a86562"
                    }
                ]
            },
            {
                "_links": {
                    "self": {
                        "href": "http:\/\/default\/taxonomy\/term\/22?_format=hal_json"
                    },
                    "type": {
                        "href": "http:\/\/drupal.org\/rest\/type\/taxonomy_term\/interests"
                    }
                },
                "uuid": [
                    {
                        "value": "45a68129-b459-4256-a140-7d01615a7f2c"
                    }
                ]
            }
        ]
    },
    "created": [
        {
            "value": 1493888715
        }
    ],
    "changed": [
        {
            "value": 1496176062
        }
    ],
    "promote": [
        {
            "value": true
        }
    ],
    "sticky": [
        {
            "value": false
        }
    ],
    "revision_translation_affected": [
        {
            "value": true
        }
    ],
    "path": [
        {
            "alias": "\/profile-list\/tom-bennett",
            "pid": 37
        }
    ],
    "body": [
        {
            "value": "<blockquote>\r\n<p>Tom was once named one of the Top 50 Technology Innovators by VARBusiness Magazine, is a past Champion of the BCTIA CTO Roundtable Group, and is a BCIC\/Acetech accredited Lead Mentor.<\/p>\r\n<\/blockquote>\r\n\r\n<p>Tom serves as the Strategic and Financial advisor at ImageX. Additionally he contributes to the company as a director on our leadership team, a mentor and an executive consultant with&nbsp;more than 30 years of software industry experience.<\/p>\r\n\r\n<p>Tom spent most of his career first as CTO and then as a co-president for Maximizer Software a leading provider of innovative customer relationship management and contact management solutions that help small to medium enterprises improve sales, streamline marketing and enhance customer service.&nbsp; Tom also served as one of the original architects of that company's very popular contact management product, Maximizer. Maximizer has been used by millions of people throughout the world and has received more than 50 Product Awards (including Best of Comdex)<\/p>\r\n\r\n<p>Tom has an outstanding record of achievement especially in the areas of developing a Clear Strategic Focus, driving Profitable Revenue Growth, leading Processes and Automation, and executing Research &amp; Development Effectiveness.<\/p>\r\n",
            "format": "rich_text",
            "summary": ""
        }
    ],
    "field_profile_courses": [
        {
            "value": "English 112"
        }
    ],
    "field_profile_education": [
        {
            "value": "Ph.D., Literature, Harvard University, Cambridge, 2005"
        }
    ],
    "field_profile_email": [
        {
            "value": "tomb@imagexmedia.com"
        }
    ],
    "field_profile_job_title": [
        {
            "value": "Dean of the School of Finance"
        }
    ],
    "field_profile_name": [
        {
            "title": null,
            "given": "Tom",
            "middle": null,
            "family": "Bennett",
            "generational": null,
            "credentials": null
        }
    ],
    "field_profile_office": [
        {
            "value": "163 W. Hastings Street, Suite 405, Vancouver, BC, V6B 1H5, Canada"
        }
    ],
    "field_profile_phone": [
        {
            "value": "1.778.785.1547"
        }
    ],
    "field_profile_publications": [
        {
            "value": "<h3>Vestibulum pharetra ante non nisi molestie, ut tempus quam gravida \u2013 May 4 2016<\/h3>\r\n\r\n<p>by Gary Smith-Jones&nbsp;(Editor)<\/p>\r\n",
            "format": "rich_text"
        },
        {
            "value": "<h3>Vestibulum pharetra ante non nisi molestie, ut tempus quam gravida&nbsp;\u2013 Oct 1 1984<\/h3>\r\n\r\n<p>by Dane Reilly&nbsp;(Author)<\/p>\r\n",
            "format": "rich_text"
        },
        {
            "value": "<h3>Vestibulum pharetra ante non nisi molestie, ut tempus quam gravida&nbsp;\u2013 Nov 1 2016<\/h3>\r\n\r\n<p>by Beth Adam&nbsp;(Author, Contributor)<\/p>\r\n",
            "format": "rich_text"
        },
        {
            "value": "<h3>Vestibulum pharetra ante non nisi molestie, ut tempus quam gravida&nbsp;\u2013 Apr 8 2005<\/h3>\r\n\r\n<p>by Autumn Todd&nbsp;(Author)<\/p>\r\n",
            "format": "rich_text"
        }
    ],
    "field_profile_research_projects": [
        {
            "value": "<h3>Vestibulum pharetra ante non nisi molestie, ut tempus quam gravida<\/h3>\r\n\r\n<p><strong>Supervisor:<\/strong> D. Aaron<\/p>\r\n",
            "format": "rich_text"
        },
        {
            "value": "<h3>Vestibulum pharetra ante non nisi molestie, ut tempus quam gravida<\/h3>\r\n\r\n<p><strong>Supervisor:<\/strong> D. Reilly<\/p>\r\n",
            "format": "rich_text"
        },
        {
            "value": "<h3>Development and clinical testing in absentia.<\/h3>\r\n\r\n<p><strong>Principal Investigator:<\/strong> Liz Souza<\/p>\r\n\r\n<p><strong>Supervisor:<\/strong>&nbsp;Frank&nbsp;Chang, MD, professor of surgery.<\/p>\r\n",
            "format": "rich_text"
        },
        {
            "value": "<h3>Vestibulum pharetra ante non nisi molestie, ut tempus quam gravida<\/h3>\r\n\r\n<p><strong>Principal Investigator:&nbsp;<\/strong>John Yates<\/p>\r\n\r\n<p><strong>Supervisor:<\/strong>&nbsp;Lynn Chang, MD, associate professor of science.<\/p>\r\n",
            "format": "rich_text"
        }
    ],
    "field_profile_students": [
        {
            "value": "<ul>\r\n\t<li>Les Cordell<\/li>\r\n\t<li>Yuriy Gerasimov<\/li>\r\n\t<li>Gavin Graham<\/li>\r\n\t<li>Bryan Heredia<\/li>\r\n\t<li>Erin Joyce<\/li>\r\n\t<li>Travis Ketler<\/li>\r\n<\/ul>\r\n",
            "format": "rich_text"
        }
    ],
    "field_profile_type": [
        {
            "value": "faculty"
        }
    ]
}
